{
	"info": {
		"_postman_id": "bc3cfa12-85b1-4218-beeb-6f47fb2f0062",
		"name": "test",
		"schema": "https://schema.getpostman.com/json/collection/v2.1.0/collection.json"
	},
	"item": [
		{
			"name": "http://localhost:8000/predict/",
			"protocolProfileBehavior": {
				"disableBodyPruning": true
			},
			"request": {
				"method": "GET",
				"header": [
					{
						"key": "Content-Type",
						"name": "Content-Type",
						"value": "application/json",
						"type": "text"
					}
				],
				"body": {
					"mode": "raw",
					"raw": "{\n    \"reassignment_count\": 1,\n    \"reopen_count\": 0,\n    \"sys_mod_count\": 2,\n    \"made_sla\": 1,\n    \"contact_type\": 1,\n    \"location\": 204,\n    \"category\": 42,\n    \"subcategory\": 223,\n    \"u_symptom\": 494,\n    \"impact\": 2,\n    \"urgency\": 2,\n    \"priority\": 3,\n    \"knowledge\": 1,\n    \"u_priority_confirmation\": 1,\n    \"notify\": 0,\n    \"closed_code\": 5\n}",
					"options": {
						"raw": {
							"language": "json"
						}
					}
				},
				"url": {
					"raw": "http://localhost:8000/predict/",
					"protocol": "http",
					"host": [
						"localhost"
					],
					"port": "8000",
					"path": [
						"predict",
						""
					]
				}
			},
			"response": []
		}
	],
	"protocolProfileBehavior": {}
}